[
  {
    "id": "cuchillazo",
    "name": "cuchillazo",
    "description": "Mete cuchillo saca las tripas",
    "modifier": {
      "poder": 20,
      "velocidad": 5,
      "cooldown": 1
    },
    "target": "single",
    "actions": ["basicDamage"],
    "messages": [
      "{user} le asestó un cuchillazo a {objetives} y le hizo {damage} de daño"
    ]
  },
  {
    "id": "envenenamiento",
    "name": "envenenamiento",
    "description": "Envenena a un enemigo",
    "modifier": {
      "poder": 20,
      "turnos": 3,
      "velocidad": 3,
      "cooldown": 3
    },
    "target": "single",
    "actions": ["poison"],
    "messages": [
      "{user} enveneno a {objetives} por {turns} turnos"
    ]
  },
  {
    "id": "passTurn",
    "name": "pass turn",
    "description": "no hace nada",
    "modifier": {
      "poder": 0,
      "velocidad": 1,
      "cooldown": 0
    },
    "target": "all",
    "actions": [],
    "messages": [
      "{user} no hizo nada"
    ]
  },
  {
    "id": "tripleAtk",
    "name": "triple ataque",
    "description": "asesta 3 golpes",
    "modifier": {
      "poder": 15,
      "velocidad": 2,
      "cooldown": 3
    },
    "target": "single",
    "actions": ["basicDamage", "basicDamage", "basicDamage"]
  },
  {
    "id": "desguazamiento",
    "name": "desguazamiento",
    "description": "Ataca a todos a la vez",
    "modifier": {
      "poder": 18,
      "velocidad": 2,
      "cooldown": 2
    },
    "target": "all",
    "actions": ["basicDamage"]
  },
  {
    "id": "mazazo",
    "name": "mazazo",
    "description": "un contundente golpe",
    "modifier": {
      "poder": 25,
      "velocidad": 3,
      "cooldown": 4
    },
    "target": "single",
    "actions": ["basicDamage"]
  },
  {
    "id": "rayo",
    "name": "rayo",
    "description": "envia un rayo al enemigo",
    "modifier": {
      "poder": 22,
      "velocidad": 5,
      "cooldown": 4
    },
    "target": "single",
    "actions": ["basicDamage"]
  },
  {
    "id": "explosion",
    "name": "explosion",
    "description": "explota dañando a todos los enemigos",
    "modifier": {
      "poder": 20,
      "velocidad": 4,
      "cooldown": 5
    },
    "target": "all",
    "actions": ["basicDamage"]
  }
]
